module test.io/cuelang

go 1.18

require cuelang.org/go v0.4.3

require (
	github.com/cockroachdb/apd/v2 v2.0.1 // indirect
	github.com/google/uuid v1.2.0 // indirect
	github.com/mpvl/unique v0.0.0-20150818121801-cbe035fff7de // indirect
	github.com/pkg/errors v0.8.1 // indirect
	golang.org/x/net v0.0.0-20200226121028-0de0cce0169b // indirect
	golang.org/x/text v0.3.7 // indirect
	gopkg.in/yaml.v3 v3.0.0-20210107192922-496545a6307b // indirect
)
